%!PS-Adobe-2.0 EPSF-2.0
%%BoundingBox:  0 0 567 612
%%Title: /data/vami/projects/PilotBlade/Approval_plots/PilotBlade_8ResidualDX.eps: Track hit residual on pixel pilot blade (azimuthal direction)
%%Creator: ROOT Version 6.02/05
%%CreationDate: Tue Aug 25 18:41:20 2015
%%EndComments
%%BeginProlog
80 dict begin
/s {stroke} def /l {lineto} def /m {moveto} def /t {translate} def
/r {rotate} def /rl {roll}  def /R {repeat} def
/d {rlineto} def /rm {rmoveto} def /gr {grestore} def /f {eofill} def
/c {setrgbcolor} def /black {0 setgray} def /sd {setdash} def
/cl {closepath} def /sf {scalefont setfont} def /lw {setlinewidth} def
/box {m dup 0 exch d exch 0 d 0 exch neg d cl} def
/NC{systemdict begin initclip end}def/C{NC box clip newpath}def
/bl {box s} def /bf {box gsave f grestore s} def /Y { 0 exch d} def /X { 0 d} def 
/K {{pop pop 0 moveto} exch kshow} bind def
/ita {/ang 15 def gsave [1 0 ang dup sin exch cos div 1 0 0] concat} def 
/mp {newpath /y exch def /x exch def} def
/side {[w .77 mul w .23 mul] .385 w mul sd w 0 l currentpoint t -144 r} def
/mr {mp x y w2 0 360 arc} def /m24 {mr s} def /m20 {mr f} def
/mb {mp x y w2 add m w2 neg 0 d 0 w neg d w 0 d 0 w d cl} def
/mt {mp x y w2 add m w2 neg w neg d w 0 d cl} def
/m21 {mb f} def /m25 {mb s} def /m22 {mt f} def /m26{mt s} def
/m23 {mp x y w2 sub m w2 w d w neg 0 d cl f} def
/m27 {mp x y w2 add m w3 neg w2 neg d w3 w2 neg d w3 w2 d cl s} def
/m28 {mp x w2 sub y w2 sub w3 add m w3 0 d  0 w3 neg d w3 0 d 0 w3 d w3 0 d  0 w3 d w3 neg 0 d 0 w3 d w3 neg 0 d 0 w3 neg d w3 neg 0 d cl s } def
/m29 {mp gsave x w2 sub y w2 add w3 sub m currentpoint t 4 {side} repeat cl fill gr} def
/m30 {mp gsave x w2 sub y w2 add w3 sub m currentpoint t 4 {side} repeat cl s gr} def
/m31 {mp x y w2 sub m 0 w d x w2 sub y m w 0 d x w2 sub y w2 add m w w neg d x w2 sub y w2 sub m w w d s} def
/m32 {mp x y w2 sub m w2 w d w neg 0 d cl s} def
/m33 {mp x y w2 add m w3 neg w2 neg d w3 w2 neg d w3 w2 d cl f} def
/m34 {mp x w2 sub y w2 sub w3 add m w3 0 d  0 w3 neg d w3 0 d 0 w3 d w3 0 d  0 w3 d w3 neg 0 d 0 w3 d w3 neg 0 d 0 w3 neg d w3 neg 0 d cl f } def
/m2 {mp x y w2 sub m 0 w d x w2 sub y m w 0 d s} def
/m5 {mp x w2 sub y w2 sub m w w d x w2 sub y w2 add m w w neg d s} def
/reEncode {exch findfont dup length dict begin {1 index /FID eq  {pop pop} {def} ifelse } forall /Encoding exch def currentdict end dup /FontName get exch definefont pop } def [/Times-Bold /Times-Italic /Times-BoldItalic /Helvetica /Helvetica-Oblique
 /Helvetica-Bold /Helvetica-BoldOblique /Courier /Courier-Oblique /Courier-Bold /Courier-BoldOblique /Times-Roman /AvantGarde-Book /AvantGarde-BookOblique /AvantGarde-Demi /AvantGarde-DemiOblique /Bookman-Demi /Bookman-DemiItalic /Bookman-Light
 /Bookman-LightItalic /Helvetica-Narrow /Helvetica-Narrow-Bold /Helvetica-Narrow-BoldOblique /Helvetica-Narrow-Oblique /NewCenturySchlbk-Roman /NewCenturySchlbk-Bold /NewCenturySchlbk-BoldItalic /NewCenturySchlbk-Italic /Palatino-Bold
 /Palatino-BoldItalic /Palatino-Italic /Palatino-Roman ] {ISOLatin1Encoding reEncode } forall
%%EndProlog
%%BeginSetup
%%EndSetup
newpath  gsave  .25 .25 scale  gsave  0 0 t black[  ] 0 sd 3 lw 1 1 1 c 2268 2450 0 0 bf black 1 1 1 c 2025 2025 162 243 bf black 2025 2025 162 243 bl 1 1 1 c 2025 2025 162 243 bf black 2025 2025 162 243 bl 162 243 m 2025 X s[ 4 8] 0 sd 356 2268 m
 -2025 Y s 561 2268 m -2025 Y s 765 2268 m -2025 Y s 970 2268 m -2025 Y s 1174 2268 m -2025 Y s 1379 2268 m -2025 Y s 1583 2268 m -2025 Y s 1788 2268 m -2025 Y s 1992 2268 m -2025 Y s 356 2268 m -2025 Y s 1992 2268 m -2025 Y s[  ] 0 sd 162 243 m 2025
 Y s[ 4 8] 0 sd 2187 542 m -2025 X s 2187 842 m -2025 X s 2187 1142 m -2025 X s 2187 1442 m -2025 X s 2187 1742 m -2025 X s 2187 2043 m -2025 X s 2187 542 m -2025 X s 2187 2043 m -2025 X s 0 0 0.6 c[  ] 0 sd 6 lw 1 1 1 c black 0 0 0.6 c 162 243 m 182
 X 13 Y 20 X -13 Y 162 X 13 Y 21 X -13 Y 243 X 13 Y 60 X -13 Y 21 X 13 Y 20 X -13 Y 20 X 13 Y 20 X 15 Y 21 X 31 Y 20 X -31 Y 20 X 76 Y 20 X 30 Y 21 X 105 Y 20 X -135 Y 20 X 285 Y 20 X 60 Y 21 X 195 Y 20 X 210 Y 20 X 375 Y 20 X 481 Y 21 X 75 Y 20 X
 -196 Y 20 X -195 Y 20 X -210 Y 21 X -405 Y 20 X -225 Y 20 X -225 Y 20 X -180 Y 21 X 30 Y 20 X -120 Y 20 X 15 Y 20 X 45 Y 21 X -45 Y 20 X -61 Y 20 X 30 Y 20 X -30 Y 21 X 30 Y 20 X -43 Y 20 X 13 Y 20 X -13 Y 122 X 13 Y 20 X -13 Y 41 X 13 Y 20 X -13 Y
 20 X 13 Y 20 X -13 Y 122 X 13 Y 20 X -13 Y 142 X 13 Y 20 X -13 Y 61 X s black 3 lw 162 243 m 2025 X s
 gsave  2268 2450 0 0 C 1850.62 48.5939 t 0 r /Helvetica findfont 121.485 sf 0 0 m (X [cm]) show NC gr 
 gsave  2268 2450 0 0 C 1773.68 48.5939 t 0 r /Symbol findfont 121.485 sf 0 0 m (D) show NC gr 
 gsave  2268 2450 0 0 C 1267.49 48.5939 t 0 r /Helvetica findfont 121.485 sf 0 0 m (Residual ) show NC gr  356 309 m -66 Y s 407 276 m -33 Y s 459 276 m -33 Y s 510 276 m -33 Y s 561 309 m -66 Y s 612 276 m -33 Y s 663 276 m -33 Y s 714 276 m -33 Y s
 765 309 m -66 Y s 816 276 m -33 Y s 868 276 m -33 Y s 919 276 m -33 Y s 970 309 m -66 Y s 1021 276 m -33 Y s 1072 276 m -33 Y s 1123 276 m -33 Y s 1174 309 m -66 Y s 1225 276 m -33 Y s 1277 276 m -33 Y s 1328 276 m -33 Y s 1379 309 m -66 Y s 1430
 276 m -33 Y s 1481 276 m -33 Y s 1532 276 m -33 Y s 1583 309 m -66 Y s 1635 276 m -33 Y s 1686 276 m -33 Y s 1737 276 m -33 Y s 1788 309 m -66 Y s 1839 276 m -33 Y s 1890 276 m -33 Y s 1941 276 m -33 Y s 1992 309 m -66 Y s 356 309 m -66 Y s 305 276
 m -33 Y s 254 276 m -33 Y s 203 276 m -33 Y s 1992 309 m -66 Y s 2044 276 m -33 Y s 2095 276 m -33 Y s 2146 276 m -33 Y s
 gsave  2268 2450 0 0 C 295.613 161.98 t 0 r /Helvetica findfont 76.9404 sf 0 0 m (0.08) show NC gr 
 gsave  2268 2450 0 0 C 255.118 161.98 t 0 r /Symbol findfont 76.9404 sf 0 0 m (-) show NC gr 
 gsave  2268 2450 0 0 C 502.137 161.98 t 0 r /Helvetica findfont 76.9404 sf 0 0 m (0.06) show NC gr 
 gsave  2268 2450 0 0 C 461.642 161.98 t 0 r /Symbol findfont 76.9404 sf 0 0 m (-) show NC gr 
 gsave  2268 2450 0 0 C 704.612 161.98 t 0 r /Helvetica findfont 76.9404 sf 0 0 m (0.04) show NC gr 
 gsave  2268 2450 0 0 C 664.117 161.98 t 0 r /Symbol findfont 76.9404 sf 0 0 m (-) show NC gr 
 gsave  2268 2450 0 0 C 911.136 161.98 t 0 r /Helvetica findfont 76.9404 sf 0 0 m (0.02) show NC gr 
 gsave  2268 2450 0 0 C 870.641 161.98 t 0 r /Symbol findfont 76.9404 sf 0 0 m (-) show NC gr 
 gsave  2268 2450 0 0 C 1154.11 161.98 t 0 r /Helvetica findfont 76.9404 sf 0 0 m (0) show NC gr 
 gsave  2268 2450 0 0 C 1299.89 161.98 t 0 r /Helvetica findfont 76.9404 sf 0 0 m (0.02) show NC gr 
 gsave  2268 2450 0 0 C 1506.41 161.98 t 0 r /Helvetica findfont 76.9404 sf 0 0 m (0.04) show NC gr 
 gsave  2268 2450 0 0 C 1708.89 161.98 t 0 r /Helvetica findfont 76.9404 sf 0 0 m (0.06) show NC gr 
 gsave  2268 2450 0 0 C 1915.41 161.98 t 0 r /Helvetica findfont 76.9404 sf 0 0 m (0.08) show NC gr  162 243 m 2025 Y s 218 542 m -56 X s 190 617 m -28 X s 190 692 m -28 X s 190 767 m -28 X s 218 842 m -56 X s 190 917 m -28 X s 190 992 m -28 X s 190
 1067 m -28 X s 218 1142 m -56 X s 190 1217 m -28 X s 190 1292 m -28 X s 190 1367 m -28 X s 218 1442 m -56 X s 190 1517 m -28 X s 190 1592 m -28 X s 190 1667 m -28 X s 218 1742 m -56 X s 190 1817 m -28 X s 190 1892 m -28 X s 190 1968 m -28 X s 218
 2043 m -56 X s 218 542 m -56 X s 190 467 m -28 X s 190 392 m -28 X s 190 317 m -28 X s 218 2043 m -56 X s 190 2118 m -28 X s 190 2193 m -28 X s
 gsave  2268 2450 0 0 C 64.7919 514.286 t 0 r /Helvetica findfont 76.9404 sf 0 0 m (20) show NC gr 
 gsave  2268 2450 0 0 C 64.7919 813.948 t 0 r /Helvetica findfont 76.9404 sf 0 0 m (40) show NC gr 
 gsave  2268 2450 0 0 C 64.7919 1117.66 t 0 r /Helvetica findfont 76.9404 sf 0 0 m (60) show NC gr 
 gsave  2268 2450 0 0 C 64.7919 1417.32 t 0 r /Helvetica findfont 76.9404 sf 0 0 m (80) show NC gr 
 gsave  2268 2450 0 0 C 24.297 1716.99 t 0 r /Helvetica findfont 76.9404 sf 0 0 m (100) show NC gr 
 gsave  2268 2450 0 0 C 24.297 2016.65 t 0 r /Helvetica findfont 76.9404 sf 0 0 m (120) show NC gr  1 1 1 c black
 gsave  2268 2450 0 0 C 728.909 2348.71 t 0 r /Helvetica findfont 56.6929 sf 0 0 m (Track hit residual on pixel pilot blade \(azimuthal direction\)) show NC gr 
 gsave  2268 2450 0 0 C 1490.21 1968.05 t 0 r /Helvetica-Bold findfont 85.0394 sf 0 0 m (RMS = 0.01038) show NC gr 
 gsave  2268 2450 0 0 C 1198.65 2125.98 t 0 r /Helvetica-Oblique findfont 85.0394 sf 0 0 m (Preliminary) show NC gr 
 gsave  2268 2450 0 0 C 352.306 2125.98 t 0 r /Helvetica-Bold findfont 105.287 sf 0 0 m (CMS Simulation ) show NC gr 
 gr  gr showpage
end
%%EOF
